{
  "title": "使用者:EighteenChild/liberty.css",
  "text": "<div class=\"mw-parser-output\"><pre class=\"mw-code mw-css\" dir=\"ltr\">\n\n @import url('https://fonts.googleapis.com/css2?family=Noto+Serif+JP&amp;family=Noto+Serif+KR&amp;display=swap');\n\nbody {\n    ruby-align: center;\n    ruby-align: distribute-space;\n    text-underline-position: right under;\n}\n\n.mw-editsection-bracket {\n    display: none;\n}\n\n.Liberty .nav-wrapper .navbar .navbar-login .logout-btn {\n    display: none;\n}\n\n.btn.btn-secondary.tools-btn.tools-share {\n    display: none;\n}\n\n.Liberty .content-wrapper .liberty-content .liberty-content-main {\n    padding: 2rem 1rem;\n}\n\n.live-recent-content {\n    font-family: 'Noto Serif KR', 'Noto Serif JP', serif;\n}\n\n#mw-content-text .mw-parser-output {\n    writing-mode: vertical-rl;\n    width: 100%;\n    overflow: hidden;\n\n    columns: 18em;\n    column-gap: 2em;\n    column-rule: 1px solid #eee;\n    column-fill: auto;\n\n    font-size: 1.1rem;\n    font-family: 'Noto Serif KR', 'Noto Serif JP', serif;\n    line-height: 175%;\n    text-align: justify;\n    text-justify: inter-character;\n    text-orientation: upright;\n    text-indent: 1em;\n\n    word-spacing: 0.25em;\n    letter-spacing: -0.025em;\n}\n\n.flow-post-content > .mw-parser-output {\n    columns: 12em;\n}\n\n.flow-component.flow-board-page .flow-board-header {\n    min-height: unset;\n}\n\nh1, h2, h3, h4, h5, h6, b {\n    font-family: 'Noto Serif KR', 'Noto Serif JP', serif;\n}\n\n.flow-post .flow-post-content {\n    word-break: inherit;\n    overflow: inherit;\n    max-height: unset;\n}\n\n.Liberty .content-wrapper .liberty-content .liberty-content-main h1, .Liberty .content-wrapper .liberty-content .liberty-content-main h2, .Liberty .content-wrapper .liberty-content .liberty-content-main h3, .Liberty .content-wrapper .liberty-content .liberty-content-main h4, .Liberty .content-wrapper .liberty-content .liberty-content-main h5, .Liberty .content-wrapper .liberty-content .liberty-content-main h6 {\n    margin-top: 0px;\n    border-bottom: none;\n    margin-bottom: 0px;\n    padding-bottom: 0px;\n\n    margin-block-start: 1rem;\n    border-block-end: 1px dotted #e1e8ed;\n    margin-block-end: 0.6rem;\n    padding-block-end: 0.6rem;\n    overflow-wrap: break-word;\n}\n\n.Liberty .content-wrapper .liberty-content .liberty-content-main table.wikitable, .Liberty .content-wrapper .liberty-content .liberty-content-main table.infobox {\n    margin: 0px;\n    margin-block: 0.8em;\n}\n\n.mw-content-ltr .mw-editsection, .mw-content-rtl .mw-content-ltr .mw-editsection {\n    margin-inline-start: 1em;\n    margin-left: 0px;\n}\n\n#toc {\n    display: none;\n}\n\ndiv.redirectMsg {\n    writing-mode: horizontal-tb;\n}\n\n.horizontal {\n    writing-mode: horizontal-tb;\n}\n\n.mw-content-ltr ol, .mw-content-rtl .mw-content-ltr ol {\n    margin: 0px;\n    padding: revert;\n    text-indent: 0em;\n}\n\n.mw-content-ltr ul, .mw-content-rtl .mw-content-ltr ul {\n    margin: 0px;\n    padding: revert;\n    text-indent: 0em;\n}\n\n.Liberty .content-wrapper .liberty-content .liberty-content-main ul {\n    margin: 0px;\n    padding: revert;\n    text-indent: 0em;\n}\n\na, .english {\n    text-orientation: mixed;\n}\n\np {\n    margin-bottom: 0;\n    margin-block-end: 1em;\n}\n\nimg {\n    max-height: 100%;\n    width: auto;\n    margin: 0;\n}\n\nblockquote {\n    margin: 0 0 0 1rem;\n    border: 2px dashed #8884;\n    border-inline-start: 5px solid #f55b2c;\n    padding: 10px;\n    background: #8881;\n    text-indent: 0px;\n}\n\nblockquote p {\n    margin: 0px;\n}\n\nsup {\n    top: revert;\n}\n\nsub {\n    bottom: revert;\n}\n</pre>\n</div>",
  "categories": []
}