{
  "title": "釜山廣域市/HanjaRuby",
  "text": "<div class=\"mw-parser-output\"><p><ruby class=\"hanja grade12\"><rb>釜山</rb><rp>(</rp><rt>부산</rt><rp>)</rp></ruby> =&gt; 가마야마\n</p><p><ruby class=\"hanja grade40\"><rb>廣域市</rb><rp>(</rp><rt>광역시</rt><rp>)</rp></ruby>\n</p>\n<!-- \nNewPP limit report\nCached time: 20210201011627\nCache expiry: 86400\nDynamic content: false\nComplications: []\n[SMW] In‐text annotation parser time: 0.003 seconds\nCPU time usage: 0.005 seconds\nReal time usage: 0.013 seconds\nPreprocessor visited node count: 1/1000000\nPost‐expand include size: 0/2097152 bytes\nTemplate argument size: 0/2097152 bytes\nHighest expansion depth: 1/40\nExpensive parser function count: 0/100\nUnstrip recursion depth: 0/20\nUnstrip post‐expand size: 0/5000000 bytes\n-->\n<!--\nTransclusion expansion time report (%,ms,calls,template)\n100.00%    0.000      1 -total\n-->\n\n<!-- Saved in parser cache with key dev_wiki:pcache:idhash:185-0!canonical and timestamp 20210201011627 and revision id 569\n -->\n</div>",
  "categories": []
}