{
  "title": "分類:근정동",
  "text": "<div class=\"mw-parser-output\">\n<!-- \nNewPP limit report\nCached time: 20210201011648\nCache expiry: 86400\nDynamic content: false\nComplications: []\n[SMW] In‐text annotation parser time: 0.002 seconds\nCPU time usage: 0.007 seconds\nReal time usage: 0.021 seconds\nPreprocessor visited node count: 1/1000000\nPost‐expand include size: 0/2097152 bytes\nTemplate argument size: 0/2097152 bytes\nHighest expansion depth: 1/40\nExpensive parser function count: 0/100\nUnstrip recursion depth: 0/20\nUnstrip post‐expand size: 0/5000000 bytes\n-->\n<!--\nTransclusion expansion time report (%,ms,calls,template)\n100.00%    0.000      1 -total\n-->\n\n<!-- Saved in parser cache with key dev_wiki:pcache:idhash:83-0!canonical and timestamp 20210201011648 and revision id 383\n -->\n</div>",
  "categories": [
    "分類:중구 (코바야 시)의 행정구역"
  ],
  "members": [
    "근정동",
    "分類:근정동의 건물"
  ]
}