{
  "title": "分類:大韓民國의 都市",
  "text": "<div class=\"mw-parser-output\">\n<!-- \nNewPP limit report\nCached time: 20210201011648\nCache expiry: 86400\nDynamic content: false\nComplications: []\nCPU time usage: 0.002 seconds\nReal time usage: 0.002 seconds\nPreprocessor visited node count: 0/1000000\nPost‐expand include size: 0/2097152 bytes\nTemplate argument size: 0/2097152 bytes\nHighest expansion depth: 0/40\nExpensive parser function count: 0/100\nUnstrip recursion depth: 0/20\nUnstrip post‐expand size: 0/5000000 bytes\n-->\n<!--\nTransclusion expansion time report (%,ms,calls,template)\n100.00%    0.000      1 -total\n-->\n\n<!-- Saved in parser cache with key dev_wiki:pcache:idhash:172-0!canonical and timestamp 20210201011648 and revision id 501\n -->\n</div>",
  "categories": [],
  "members": [
    "釜山廣域市"
  ]
}