{
  "title": "母",
  "text": "<div class=\"mw-parser-output\">\n<!-- \nNewPP limit report\nCached time: 20210201011622\nCache expiry: 86400\nDynamic content: false\nComplications: []\n[SMW] In‐text annotation parser time: 0.033 seconds\nCPU time usage: 0.117 seconds\nReal time usage: 0.299 seconds\nPreprocessor visited node count: 1/1000000\nPost‐expand include size: 0/2097152 bytes\nTemplate argument size: 0/2097152 bytes\nHighest expansion depth: 1/40\nExpensive parser function count: 0/100\nUnstrip recursion depth: 0/20\nUnstrip post‐expand size: 0/5000000 bytes\n-->\n<!--\nTransclusion expansion time report (%,ms,calls,template)\n100.00%    0.000      1 -total\n-->\n\n<!-- Saved in parser cache with key dev_wiki:pcache:idhash:32-0!canonical and timestamp 20210201011622 and revision id 58\n -->\n</div>",
  "categories": [
    "分類:個別漢字"
  ]
}