{
  "title": "漢",
  "text": "<div class=\"mw-parser-output\"><table class=\"wikitable\" style=\"float: right; text-align: center;\">\n<tbody><tr>\n<td colspan=\"99\" style=\"font-size: 5em; line-height: 120%;\"><ruby class=\"hanja grade72\"><rb>漢</rb><rp>(</rp><rt>한</rt><rp>)</rp></ruby>\n</td></tr>\n<tr>\n<th colspan=\"99\">한수 한\n</th></tr>\n<tr>\n<th>부수\n</th>\n<td><a href=\"/index.php?title=%E6%B0%B5&amp;action=edit&amp;redlink=1\" class=\"new\" title=\"氵 (없는 문서)\"><span><ruby class=\"hanja grade0 unknown\"><rb>氵</rb><rp>(</rp><rt>수</rt><rp>)</rp></ruby></span></a>\n</td>\n<th>획수\n</th>\n<td>총14획\n</td></tr>\n<tr>\n<th>간화자\n</th>\n<td><a href=\"/wiki/%E6%B1%89\" title=\"汉\"><span><ruby class=\"hanja grade0\"><rb>汉</rb><rp>(</rp><rt>한</rt><rp>)</rp></ruby></span></a>\n</td>\n<th>신자체\n</th>\n<td>-\n</td></tr></tbody></table>\n<!-- \nNewPP limit report\nCached time: 20210201011625\nCache expiry: 86400\nDynamic content: false\nComplications: []\n[SMW] In‐text annotation parser time: 0.009 seconds\nCPU time usage: 0.019 seconds\nReal time usage: 0.021 seconds\nPreprocessor visited node count: 33/1000000\nPost‐expand include size: 404/2097152 bytes\nTemplate argument size: 37/2097152 bytes\nHighest expansion depth: 4/40\nExpensive parser function count: 0/100\nUnstrip recursion depth: 0/20\nUnstrip post‐expand size: 0/5000000 bytes\n-->\n<!--\nTransclusion expansion time report (%,ms,calls,template)\n100.00%    1.407      1 틀:漢字情報\n100.00%    1.407      1 -total\n-->\n\n<!-- Saved in parser cache with key dev_wiki:pcache:idhash:12-0!canonical and timestamp 20210201011625 and revision id 28\n -->\n</div>",
  "categories": [
    "分類:個別漢字"
  ]
}