{
  "title": "동운광역시",
  "text": "<div class=\"mw-parser-output\"><table class=\"wikitable\" style=\"float: right;\">\n<tbody><tr>\n<th colspan=\"2\">동운광역시\n</th></tr>\n<tr>\n<th>소속\n</th>\n<td><a href=\"/wiki/%EC%BD%94%EB%B0%94%EC%95%BC%EC%8B%9C%ED%8B%B0%EC%9D%98_%EA%B4%91%EC%97%AD%EC%9E%90%EC%B9%98%EB%8B%A8%EC%B2%B4\" title=\"코바야시티의 광역자치단체\">코바야시티</a>\n</td></tr>\n<tr>\n<th>면적\n</th>\n<td>770.1&#160;km²\n</td></tr>\n<tr>\n<th>인구\n</th>\n<td>0&#160;명\n</td></tr>\n<tr>\n<th>인구밀도\n</th>\n<td>0.00&#160;명/km²\n</td></tr>\n\n</tbody></table>\n<!-- \nNewPP limit report\nCached time: 20210201011630\nCache expiry: 86400\nDynamic content: false\nComplications: []\n[SMW] In‐text annotation parser time: 0 seconds\nCPU time usage: 0.114 seconds\nReal time usage: 0.173 seconds\nPreprocessor visited node count: 249/1000000\nPost‐expand include size: 1114/2097152 bytes\nTemplate argument size: 141/2097152 bytes\nHighest expansion depth: 15/40\nExpensive parser function count: 0/100\nUnstrip recursion depth: 0/20\nUnstrip post‐expand size: 0/5000000 bytes\n-->\n<!--\nTransclusion expansion time report (%,ms,calls,template)\n100.00%  162.628      1 틀:행정구역_정보\n100.00%  162.628      1 -total\n 37.56%   61.083      1 틀:정보상자_선택칸\n 36.97%   60.127      1 틀:하위행정구역\n 35.02%   56.957      2 틀:선택값제외\n 34.32%   55.812      2 틀:하위행정구역단위\n 27.98%   45.501      1 틀:인구\n 24.09%   39.177      1 틀:행정구역_세대수\n  5.26%    8.557      1 틀:인구밀도\n  4.66%    7.585      1 틀:면적\n-->\n\n<!-- Saved in parser cache with key dev_wiki:pcache:idhash:105-0!dateformat=default and timestamp 20210201011630 and revision id 290\n -->\n</div>",
  "categories": [
    "分類:동운광역시",
    "分類:행정구역정보"
  ]
}