{
  "title": "로렘입숨",
  "text": "<div class=\"mw-parser-output\"><p>간에 돋고, 주며, 듣는다. 가진 밝은 <ruby class=\"hanja grade60\"><rb>黃金時代</rb><rp>(</rp><rt>황금시대</rt><rp>)</rp></ruby>의 우리는 <ruby class=\"hanja grade32\"><rb>裝飾</rb><rp>(</rp><rt>장식</rt><rp>)</rp></ruby>하는 얼음과 얼마나 끝에 듣는다. 남는 <ruby class=\"hanja grade32\"><rb>透明</rb><rp>(</rp><rt>투명</rt><rp>)</rp></ruby>하되 <ruby class=\"hanja grade40\"><rb>發揮</rb><rp>(</rp><rt>발휘</rt><rp>)</rp></ruby>하기 말이다. <ruby class=\"hanja grade42\"><rb>滿天下</rb><rp>(</rp><rt>만천하</rt><rp>)</rp></ruby>의 <ruby class=\"hanja grade70\"><rb>天下</rb><rp>(</rp><rt>천하</rt><rp>)</rp></ruby>를 풀이 작고 아니다. <ruby class=\"hanja grade70\"><rb>生命</rb><rp>(</rp><rt>생명</rt><rp>)</rp></ruby>을 우리의 <ruby class=\"hanja grade52\"><rb>歷史</rb><rp>(</rp><rt>역사</rt><rp>)</rp></ruby>를 이것은 예수는 어디 소리다.이것은 피다. 속에서 <ruby class=\"hanja grade42\"><rb>爲</rb><rp>(</rp><rt>위</rt><rp>)</rp></ruby>하여, <ruby class=\"hanja grade60\"><rb>遠大</rb><rp>(</rp><rt>원대</rt><rp>)</rp></ruby>하고, <ruby class=\"hanja grade80\"><rb>日月</rb><rp>(</rp><rt>일월</rt><rp>)</rp></ruby>과 <ruby class=\"hanja grade42\"><rb>理想</rb><rp>(</rp><rt>이상</rt><rp>)</rp></ruby>, <ruby class=\"hanja grade40\"><rb>發揮</rb><rp>(</rp><rt>발휘</rt><rp>)</rp></ruby>하기 보내는 <ruby class=\"hanja grade20\"><rb>撤還</rb><rp>(</rp><rt>철환</rt><rp>)</rp></ruby>하였는가? <ruby class=\"hanja grade80\"><rb>日月</rb><rp>(</rp><rt>일월</rt><rp>)</rp></ruby>과 있는 것은 구하기 끓는다. 하는 <ruby class=\"hanja grade42\"><rb>大衆</rb><rp>(</rp><rt>대중</rt><rp>)</rp></ruby>을 <ruby class=\"hanja grade40\"><rb>群英</rb><rp>(</rp><rt>군영</rt><rp>)</rp></ruby>과 그림자는 꽃 <ruby class=\"hanja grade42\"><rb>豊富</rb><rp>(</rp><rt>풍부</rt><rp>)</rp></ruby>하게 그들을 그러므로 듣는다. 노래하며 같이, <ruby class=\"hanja grade60\"><rb>樂園</rb><rp>(</rp><rt>악원</rt><rp>)</rp></ruby>을 이상, 보이는 <ruby class=\"hanja grade70\"><rb>靑春</rb><rp>(</rp><rt>청춘</rt><rp>)</rp></ruby>은 품었기 우리 있다. <ruby class=\"hanja grade42\"><rb>希望</rb><rp>(</rp><rt>희망</rt><rp>)</rp></ruby>의 <ruby class=\"hanja grade60\"><rb>苦行</rb><rp>(</rp><rt>고행</rt><rp>)</rp></ruby>을 보내는 오직 것이다. <ruby class=\"hanja grade70\"><rb>靑春</rb><rp>(</rp><rt>청춘</rt><rp>)</rp></ruby>은 <ruby class=\"hanja grade42\"><rb>防止</rb><rp>(</rp><rt>방지</rt><rp>)</rp></ruby>하는 그들의 있다.\n</p><p>뜨고, 역사를 것은 말이다. 그들의 사람은 우는 부패뿐이다. 인간이 그들의 수 있는가? 것은 그들의 같이, 그들의 많이 못할 예수는 인간의 무한한 때문이다. 뛰노는 실로 모래뿐일 약동하다. 것이 트고, 우는 앞이 인생에 품으며, 있는가? 대중을 새 바로 이상을 청춘에서만 봄바람이다. 인간은 보내는 인간이 그들의 뜨고, 그러므로 것이다. 대중을 없으면, 그들은 풍부하게 옷을 심장은 광야에서 내는 황금시대다. 거선의 듣기만 동산에는 웅대한 것은 운다.\n</p><p>풀이 석가는 이상은 커다란 쓸쓸하랴? 얼마나 일월과 투명하되 귀는 인간의 봄바람이다. 없으면, 주는 주며, 그들에게 사막이다. 유소년에게서 인류의 동산에는 찬미를 청춘의 대중을 설레는 무엇을 끓는 약동하다. 대고, 군영과 인간의 있으랴? 청춘의 얼음과 사랑의 그들의 심장은 찾아 이성은 구하지 것이다. 끓는 물방아 고행을 용기가 있는 곧 것이다. 피에 얼마나 발휘하기 가치를 이것이야말로 아름다우냐? 맺어, 이상을 그들에게 쓸쓸한 그들의 옷을 할지니, 아니다.\n</p><p>내는 별과 우리 위하여서, 봄바람이다. 그들은 피어나기 산야에 것은 같으며, 두손을 봄날의 전인 이것이다. 뜨거운지라, 넣는 오아이스도 생명을 기관과 풍부하게 같이, 칼이다. 창공에 실로 이상은 뜨거운지라, 거친 없는 사막이다. 수 구하지 때까지 보이는 이상의 인간의 보배를 끓는다. 우는 그림자는 같지 것은 구할 말이다. 피고 생의 대고, 하는 길을 생생하며, 교향악이다. 대고, 과실이 행복스럽고 찬미를 소리다.이것은 아니다. 미인을 아름답고 주며, 사랑의 별과 말이다.\n</p><p>인생을 안고, 영락과 청춘의 사막이다. 천자만홍이 보이는 과실이 너의 때까지 희망의 찾아 것이다. 위하여 고행을 이성은 청춘에서만 그들의 피어나기 거친 구하기 아니더면, 아름다우냐? 그것을 있음으로써 인간은 바이며, 말이다. 그들은 주는 속잎나고, 것이다.보라, 같이, 품고 불어 품으며, 이 보라. 이성은 맺어, 전인 시들어 이것이다. 무엇을 피가 그들은 것이다. 노래하며 이상의 웅대한 얼음이 위하여 봄바람을 것은 투명하되 황금시대다. 피고 내려온 있음으로써 우리 풍부하게 이것은 희망의 뿐이다.\n</p><p>인간이 눈에 우리의 가진 끓는 것은 풍부하게 것이다. 충분히 날카로우나 구하기 얼마나 같으며, 우리 없으면, 있다. 하는 쓸쓸한 하였으며, 이상은 끓는다. 무엇이 긴지라 찾아 있으랴? 그들의 없는 풀밭에 석가는 남는 품에 많이 온갖 있는가? 수 생생하며, 이 무한한 온갖 봄바람을 약동하다. 방지하는 얼마나 투명하되 없는 사는가 고동을 이 생생하며, 힘있다. 힘차게 대고, 타오르고 놀이 이상의 이상 석가는 굳세게 방지하는 때문이다. 전인 커다란 생의 따뜻한 하였으며, 이 발휘하기 이것이다.\n</p><p>오직 풀이 평화스러운 그들은 사막이다. 천하를 귀는 모래뿐일 새가 풀밭에 끓는 그것을 싶이 곳으로 것이다. 불어 새 만천하의 따뜻한 운다. 소리다.이것은 관현악이며, 얼음에 이 청춘이 쓸쓸한 바이며, 그리하였는가? 그들에게 인생을 타오르고 때문이다. 새 같은 열락의 하여도 얼마나 심장은 품에 것이다. 천지는 봄바람을 바로 같지 커다란 아름다우냐? 이 있으며, 길을 청춘이 있는 청춘의 목숨을 행복스럽고 있는가? 소리다.이것은 내는 뛰노는 날카로우나 이상은 그림자는 설레는 찾아 것이다. 산야에 뛰노는 두기 원질이 사라지지 있는가?\n</p><p>길을 얼음 작고 되려니와, 사막이다. 인간의 구하지 길지 듣기만 간에 앞이 칼이다. 보이는 것은 뜨거운지라, 무엇을 못하다 소리다.이것은 있는 듣기만 것은 철환하였는가? 것은 보배를 살 방황하여도, 피어나기 생명을 공자는 교향악이다. 예수는 이상의 천지는 이 속에서 뜨거운지라, 인생을 이상의 있으랴? 대고, 우리 따뜻한 무엇을 것이다. 안고, 인류의 굳세게 작고 가치를 이것이다. 끓는 현저하게 가치를 별과 인생의 피고, 것이다. 가치를 가슴에 것은 것이다.\n</p><p>바이며, 충분히 방황하였으며, 사랑의 설산에서 몸이 우리 놀이 기관과 것이다. 거선의 보이는 있는 것이다. 이상의 길을 어디 구할 밝은 붙잡아 있는 것은 사막이다. 길지 피고 노래하며 바로 반짝이는 곳이 찾아 끓는다. 하는 얼음과 같이, 영락과 아니다. 우리 웅대한 심장은 우리 있으랴? 우리 동력은 풍부하게 별과 인생에 수 속잎나고, 것이다.보라, 용기가 있는가? 방황하였으며, 듣기만 긴지라 가슴에 끓는 사랑의 가치를 아름답고 봄바람이다. 가치를 그들은 만천하의 있는 꽃이 그러므로 같이 거친 없으면, 말이다. 하는 있는 얼마나 말이다.\n</p><p>설레는 얼음이 심장의 그들은 갑 부패뿐이다. 방황하였으며, 것이 끝에 <a href=\"/index.php?title=%E4%BA%BA%E9%96%93&amp;action=edit&amp;redlink=1\" class=\"new\" title=\"人間 (없는 문서)\"><ruby class=\"hanja grade72 unknown\"><rb>人間</rb><rp>(</rp><rt>인간</rt><rp>)</rp></ruby></a>의 철환하였는가? 소담스러운 방황하였으며, 가슴에 남는 영원히 있다. 공자는 얼음에 불러 그들은 만천하의 타오르고 봄바람이다. 바로 모래뿐일 웅대한 열락의 <a href=\"/index.php?title=%E4%BA%BA%E7%94%9F&amp;action=edit&amp;redlink=1\" class=\"new\" title=\"人生 (없는 문서)\"><ruby class=\"hanja grade80 unknown\"><rb>人生</rb><rp>(</rp><rt>인생</rt><rp>)</rp></ruby></a>을 그들에게 사랑의 얼마나 이상 칼이다. 열락의 황금시대의 붙잡아 꽃이 밝은 황금시대다. 돋고, 얼음과 충분히 있다. 맺어, 영원히 별과 위하여서, 얼음과 찬미를 피가 끓는 미인을 듣는다. 것은 동력은 위하여, 가치를 그들의 찾아 있는 되는 피가 그리하였는가? 전인 작고 옷을 그들의 위하여 몸이 더운지라 예가 희망의 운다. 곳으로 품에 바로 피다.\n</p><p>귀는 품었기 아름답고 커다란 이 <a href=\"/index.php?title=%E9%9D%91%E6%98%A5&amp;action=edit&amp;redlink=1\" class=\"new\" title=\"靑春 (없는 문서)\"><ruby class=\"hanja grade70 unknown\"><rb>靑春</rb><rp>(</rp><rt>청춘</rt><rp>)</rp></ruby></a> 위하여서. 찾아 예수는 너의 그들은 모래뿐일 부패를 것은 인생의 부패뿐이다. 원대하고, 광야에서 가는 고행을 이상 약동하다. 그들의 못할 가치를 인간에 무엇이 이상이 대한 약동하다. 어디 가는 청춘을 보는 새 맺어, 것이다. 열매를 않는 오직 힘차게 피는 싹이 대고, 쓸쓸하랴? 듣기만 대고, 따뜻한 있음으로써 위하여 대한 인도하겠다는 살았으며, 것이다. 없으면, 품에 그들은 사는가 바이며, 눈에 부패뿐이다. 곳이 산야에 없는 얼음 보라. 가는 속잎나고, 속에서 것이다. 유소년에게서 것은 할지니, 그들에게 든 속에서 사는가 이것이다.\n</p><p>가치를 안고, 이상의 얼마나 <a href=\"/wiki/%E6%B0%B8%E9%81%A0\" title=\"永遠\"><ruby class=\"hanja grade60\"><rb>永遠</rb><rp>(</rp><rt>영원</rt><rp>)</rp></ruby></a>히 아니다. 간에 온갖 같은 옷을 주는 이성은 것이다. 있음으로써 것은 구할 눈이 들어 긴지라 천지는 풍부하게 자신과 쓸쓸하랴? 고행을 그것은 많이 우리 품고 희망의 듣는다. 대한 얼마나 아름답고 뛰노는 눈에 황금시대를 이상이 듣는다. 있으며, 힘차게 보배를 더운지라 동산에는 앞이 장식하는 운다. 장식하는 봄날의 쓸쓸한 품으며, 사라지지 황금시대다. 구하지 타오르고 수 위하여, 풍부하게 이 그들의 것은 사라지지 것이다. 돋고, 것은 오아이스도 내려온 따뜻한 인생을 미묘한 피가 아름다우냐? 얼마나 천자만홍이 얼음과 힘차게 못할 용기가 무엇을 미묘한 따뜻한 끓는다.\n</p><p><a href=\"/index.php?title=%E6%99%BA%E6%85%A7&amp;action=edit&amp;redlink=1\" class=\"new\" title=\"智慧 (없는 문서)\"><ruby class=\"hanja grade32 unknown\"><rb>智慧</rb><rp>(</rp><rt>지혜</rt><rp>)</rp></ruby></a>는 없는 그와 얼음 넣는 <a href=\"/index.php?title=%E6%B2%99%E6%BC%A0&amp;action=edit&amp;redlink=1\" class=\"new\" title=\"沙漠 (없는 문서)\"><ruby class=\"hanja grade32 unknown\"><rb>沙漠</rb><rp>(</rp><rt>사막</rt><rp>)</rp></ruby></a>이다. 용기가 황금시대의 인생에 듣기만 이상은 없으면, 과실이 그러므로 시들어 약동하다. 쓸쓸한 곳으로 소금이라 그들에게 기쁘며, 이것을 너의 있는가? 얼마나 투명하되 찾아다녀도, 인생을 우리는 거선의 방황하였으며, 얼마나 것이다. 설레는 그러므로 거선의 눈이 보는 오직 얼음 있는가? 따뜻한 모래뿐일 이 그들은 그들의 가장 쓸쓸한 것이다. 열락의 열락의 청춘의 그림자는 쓸쓸하랴? 방지하는 청춘은 있는 뛰노는 하는 이것이야말로 사막이다. 것이다.보라, 하여도 피가 얼음 방황하여도, 열매를 남는 이것을 위하여 철환하였는가? 무엇을 찾아다녀도, 위하여서, 이것이다. 청춘을 인간은 대한 교향악이다.\n</p><p>귀는 봄바람을 봄날의 위하여 그러므로 품에 꽃 듣는다. 가는 없으면, 할지니, 힘있다. 그들의 군영과 영원히 것이다.보라, 이 이것이다. 뼈 이상은 같으며, 그리하였는가? 두기 보이는 위하여, 무한한 같은 미묘한 하였으며, 끓는다. 모래뿐일 타오르고 사랑의 많이 황금시대다. 영락과 얼음이 찬미를 무엇을 기쁘며, 동산에는 용감하고 그리하였는가? 꽃이 꽃이 되는 가치를 만천하의 타오르고 것이다. 것이다.보라, 거선의 수 피가 풍부하게 이 우리는 작고 부패뿐이다. 실현에 살 갑 새 커다란 피어나기 목숨을 불어 인생을 쓸쓸하랴?\n</p><p>아름답고 설산에서 이는 튼튼하며, 같지 것은 말이다. 평화스러운 심장의 피고 꽃 노년에게서 것은 얼마나 말이다. 쓸쓸한 튼튼하며, 구하지 사는가 예가 보라. 이상 풍부하게 풍부하게 위하여 끝에 그것은 그들은 이상은 이상의 것이다. 설레는 그들의 목숨이 얼음과 생의 지혜는 부패뿐이다. 평화스러운 너의 보배를 피가 꽃 이상의 교향악이다. 용감하고 우리는 풀이 곳으로 찾아다녀도, 풀이 듣는다. 시들어 오직 예수는 장식하는 전인 우리의 그들의 아니한 것이다. 지혜는 인생을 사는가 풀이 있다. 무엇을 곧 봄바람을 것은 것이다.\n</p><p><a href=\"/wiki/%E6%BC%A2%E5%AD%97%EC%9E%85%EC%88%A8\" title=\"漢字입숨\"><ruby class=\"hanja grade70\"><rb>漢字</rb><rp>(</rp><rt>한자</rt><rp>)</rp></ruby>입숨</a>\n</p>\n<!-- \nNewPP limit report\nCached time: 20210201011630\nCache expiry: 86400\nDynamic content: false\nComplications: []\n[SMW] In‐text annotation parser time: 0.001 seconds\nCPU time usage: 0.049 seconds\nReal time usage: 0.090 seconds\nPreprocessor visited node count: 1/1000000\nPost‐expand include size: 0/2097152 bytes\nTemplate argument size: 0/2097152 bytes\nHighest expansion depth: 1/40\nExpensive parser function count: 0/100\nUnstrip recursion depth: 0/20\nUnstrip post‐expand size: 0/5000000 bytes\n-->\n<!--\nTransclusion expansion time report (%,ms,calls,template)\n100.00%    0.000      1 -total\n-->\n\n<!-- Saved in parser cache with key dev_wiki:pcache:idhash:51-0!canonical and timestamp 20210201011630 and revision id 536\n -->\n</div>",
  "categories": []
}